{
    "componentChunkName": "component---node-modules-gatsby-theme-buzzing-src-gatsby-theme-timeline-templates-posts-query-js",
    "path": "/en/page/57",
    "result": {"data":{"site":{"siteMetadata":{"title":"国外新闻头条 - 全球新闻头条 - 西方新闻头条","author":"Buzzing.cc","description":"用中文浏览谷歌全球新闻(西方媒体)头条","keywords":["buzzing","西方媒体","国外新闻","世界新闻","突发新闻"],"siteUrl":"https://news.buzzing.cc","telegram":"@buzzingcc","iconUrl":"https://news.buzzing.cc/avatar.png","defaultSocialImageUrl":null,"social":[{"name":"Google News","url":"https://news.google.com/topics/CAAqJggKIiBDQkFTRWdvSUwyMHZNRGx1YlY4U0FtVnVHZ0pWVXlnQVAB","external":true},{"name":"Buzzing","url":"https://www.buzzing.cc/","external":true}],"menuLinks":[],"disqus":null,"utterances":null,"localize":[{"title":"Buzzing on World News","description":"See what's buzzing on Google World News Headline in your native language","keywords":["buzzing","Breaking News"],"locale":"en","social":{"name":null,"url":null,"external":null},"menuLinks":[{"name":"Weekly Selection","url":"/issues","external":null}]},{"title":"谷歌全球新聞頭條","description":"用中文瀏覽谷歌全球新聞(西方媒體)頭條","keywords":["buzzing","西方媒體","國外新聞","世界新聞","突發新聞"],"locale":"zh-Hant","social":null,"menuLinks":[]},{"title":"Googleグローバルニュースのヘッドライン","description":"人気のGoogleグローバルニュースのヘッドライン記事を日本語で閲覧","keywords":["buzzing","ホットニュース"],"locale":"ja","social":null,"menuLinks":[]}]}},"tagsGroup":{"group":[{"fieldValue":"9 News Australia","totalCount":1},{"fieldValue":"ABC News","totalCount":55},{"fieldValue":"AL.com","totalCount":1},{"fieldValue":"AS English","totalCount":6},{"fieldValue":"Al Jazeera English","totalCount":103},{"fieldValue":"Aljazeera.com","totalCount":43},{"fieldValue":"Anchorage Daily News","totalCount":1},{"fieldValue":"Ars Technica","totalCount":1},{"fieldValue":"Associated Press","totalCount":102},{"fieldValue":"Axios","totalCount":10},{"fieldValue":"BBC News","totalCount":217},{"fieldValue":"Bloomberg","totalCount":25},{"fieldValue":"Bloomberg Markets and Finance","totalCount":2},{"fieldValue":"Buffalo News","totalCount":4},{"fieldValue":"Business Insider","totalCount":13},{"fieldValue":"BuzzFeed News","totalCount":1},{"fieldValue":"CBC News","totalCount":1},{"fieldValue":"CBS Evening News","totalCount":3},{"fieldValue":"CBS News","totalCount":60},{"fieldValue":"CBS Philly","totalCount":2},{"fieldValue":"CIDRAP","totalCount":1},{"fieldValue":"CNBC","totalCount":80},{"fieldValue":"CNBC Television","totalCount":1},{"fieldValue":"CNN","totalCount":331},{"fieldValue":"CP24 Toronto's Breaking News","totalCount":1},{"fieldValue":"CalBearsMaven","totalCount":1},{"fieldValue":"Channel3000.com - WISC-TV3","totalCount":1},{"fieldValue":"China Change","totalCount":1},{"fieldValue":"DW News","totalCount":1},{"fieldValue":"Daily Kos","totalCount":1},{"fieldValue":"Daily Mail","totalCount":4},{"fieldValue":"Daily Sabah","totalCount":1},{"fieldValue":"Deadline","totalCount":1},{"fieldValue":"Deccan Herald","totalCount":1},{"fieldValue":"Deseret News","totalCount":2},{"fieldValue":"Deutsche Welle","totalCount":1},{"fieldValue":"E! NEWS","totalCount":2},{"fieldValue":"ESPN","totalCount":3},{"fieldValue":"East Idaho News","totalCount":1},{"fieldValue":"Electrek","totalCount":1},{"fieldValue":"Euronews","totalCount":1},{"fieldValue":"FIFA.com","totalCount":1},{"fieldValue":"FOX31 Denver","totalCount":1},{"fieldValue":"FRANCE 24 English","totalCount":1},{"fieldValue":"Financial Times","totalCount":4},{"fieldValue":"Forbes","totalCount":1},{"fieldValue":"Fox 59","totalCount":1},{"fieldValue":"Fox Business","totalCount":12},{"fieldValue":"Fox News","totalCount":108},{"fieldValue":"Gizmodo","totalCount":4},{"fieldValue":"Global News","totalCount":16},{"fieldValue":"Haaretz","totalCount":2},{"fieldValue":"Hindustan Times","totalCount":2},{"fieldValue":"Honolulu Civil Beat","totalCount":1},{"fieldValue":"Honolulu Star-Advertiser","totalCount":4},{"fieldValue":"HuffPost","totalCount":5},{"fieldValue":"INSIDER","totalCount":1},{"fieldValue":"ITV News","totalCount":1},{"fieldValue":"Inside Edition","totalCount":1},{"fieldValue":"Insider","totalCount":1},{"fieldValue":"Investor's Business Daily","totalCount":1},{"fieldValue":"Jalopnik","totalCount":1},{"fieldValue":"KABC-TV","totalCount":4},{"fieldValue":"KCRA Sacramento","totalCount":3},{"fieldValue":"KITV Honolulu","totalCount":1},{"fieldValue":"KMBC Kansas City","totalCount":1},{"fieldValue":"KOIN.com","totalCount":1},{"fieldValue":"KOMO News","totalCount":1},{"fieldValue":"KPRC Click2Houston","totalCount":1},{"fieldValue":"KRON4","totalCount":1},{"fieldValue":"KSL.com","totalCount":3},{"fieldValue":"Kotaku","totalCount":1},{"fieldValue":"Los Angeles Times","totalCount":2},{"fieldValue":"MARCA.com","totalCount":1},{"fieldValue":"MarketWatch","totalCount":3},{"fieldValue":"Mashable","totalCount":1},{"fieldValue":"Maui Now","totalCount":1},{"fieldValue":"Miami Herald","totalCount":1},{"fieldValue":"Minneapolis Star Tribune","totalCount":4},{"fieldValue":"NBA","totalCount":1},{"fieldValue":"NBC Bay Area","totalCount":2},{"fieldValue":"NBC New York","totalCount":3},{"fieldValue":"NBC News","totalCount":75},{"fieldValue":"NBC Southern California","totalCount":1},{"fieldValue":"NBC10 Boston","totalCount":1},{"fieldValue":"NDTV","totalCount":11},{"fieldValue":"NEWS9 live","totalCount":1},{"fieldValue":"NJ.com","totalCount":2},{"fieldValue":"NMDOH - Department of Health","totalCount":1},{"fieldValue":"NPR","totalCount":123},{"fieldValue":"New York Daily News","totalCount":1},{"fieldValue":"New York Post","totalCount":22},{"fieldValue":"New York Post ","totalCount":71},{"fieldValue":"New York Sun","totalCount":1},{"fieldValue":"News 5 Cleveland","totalCount":1},{"fieldValue":"Newsweek","totalCount":16},{"fieldValue":"OregonLive","totalCount":4},{"fieldValue":"POLITICO","totalCount":15},{"fieldValue":"Page Six","totalCount":2},{"fieldValue":"Phys.org","totalCount":1},{"fieldValue":"Politico","totalCount":3},{"fieldValue":"RNZ","totalCount":1},{"fieldValue":"Reuters","totalCount":167},{"fieldValue":"Reuters Canada","totalCount":4},{"fieldValue":"Reuters India","totalCount":6},{"fieldValue":"Reuters UK","totalCount":11},{"fieldValue":"SF Gate","totalCount":2},{"fieldValue":"SFGate","totalCount":1},{"fieldValue":"Salt Lake Tribune","totalCount":1},{"fieldValue":"ScienceAlert","totalCount":1},{"fieldValue":"Sky News","totalCount":3},{"fieldValue":"Space.com","totalCount":1},{"fieldValue":"TMZ","totalCount":1},{"fieldValue":"TODAY","totalCount":1},{"fieldValue":"The Daily Beast","totalCount":5},{"fieldValue":"The Epoch Times","totalCount":2},{"fieldValue":"The Guardian","totalCount":93},{"fieldValue":"The Guardian Australia","totalCount":1},{"fieldValue":"The Hill","totalCount":68},{"fieldValue":"The Independent","totalCount":5},{"fieldValue":"The Indian Express","totalCount":2},{"fieldValue":"The Jerusalem Post","totalCount":20},{"fieldValue":"The New York Times","totalCount":273},{"fieldValue":"The Royal Family Channel","totalCount":1},{"fieldValue":"The Seattle Times","totalCount":1},{"fieldValue":"The Times of Israel","totalCount":55},{"fieldValue":"The Tribune India","totalCount":3},{"fieldValue":"The Verge","totalCount":1},{"fieldValue":"The Wall Street Journal","totalCount":92},{"fieldValue":"The Washington Post","totalCount":129},{"fieldValue":"The White House","totalCount":4},{"fieldValue":"Times of India","totalCount":8},{"fieldValue":"Today.com","totalCount":1},{"fieldValue":"TownandCountrymag.com","totalCount":1},{"fieldValue":"USA TODAY","totalCount":49},{"fieldValue":"Variety","totalCount":1},{"fieldValue":"VolcanoDiscovery","totalCount":3},{"fieldValue":"Vox.com","totalCount":4},{"fieldValue":"WBAY","totalCount":1},{"fieldValue":"WCPO","totalCount":1},{"fieldValue":"WCVB Boston","totalCount":1},{"fieldValue":"WDIV ClickOnDetroit","totalCount":3},{"fieldValue":"WFMZ Allentown","totalCount":1},{"fieldValue":"WGHP FOX8 Greensboro","totalCount":1},{"fieldValue":"WGN TV Chicago","totalCount":1},{"fieldValue":"WGN-TV","totalCount":1},{"fieldValue":"WHIO Radio","totalCount":1},{"fieldValue":"WION","totalCount":2},{"fieldValue":"WJW FOX 8 News Cleveland","totalCount":3},{"fieldValue":"WKRC TV Cincinnati","totalCount":3},{"fieldValue":"WLWT Cincinnati","totalCount":1},{"fieldValue":"WOODTV.com","totalCount":2},{"fieldValue":"WPLG Local 10","totalCount":1},{"fieldValue":"WPRI.com","totalCount":1},{"fieldValue":"WPVI-TV","totalCount":1},{"fieldValue":"WRAL.com","totalCount":3},{"fieldValue":"WTA Tennis","totalCount":2},{"fieldValue":"WTOP","totalCount":1},{"fieldValue":"World Health Organization","totalCount":1},{"fieldValue":"Yahoo Finance","totalCount":1},{"fieldValue":"Yahoo Lifestyle","totalCount":2},{"fieldValue":"Yahoo News","totalCount":90},{"fieldValue":"Yahoo Tech","totalCount":1},{"fieldValue":"bbc.com","totalCount":3},{"fieldValue":"cnn.com","totalCount":1},{"fieldValue":"fox5sandiego.com","totalCount":1},{"fieldValue":"fox8.com","totalCount":1},{"fieldValue":"foxnews.com","totalCount":1},{"fieldValue":"go.com","totalCount":1},{"fieldValue":"myfox8.com","totalCount":1},{"fieldValue":"oregonlive.com","totalCount":1},{"fieldValue":"reuters.com","totalCount":3},{"fieldValue":"syracuse.com","totalCount":1},{"fieldValue":"yahoo.com","totalCount":1}]},"allBlogPost":{"nodes":[{"id":"RedirectPost-924f5bb1fc0aba59bc3bb0e8fb04bc9c","excerpt":"","slug":"/redirect/?url=https%3A%2F%2Fnews.google.com%2F__i%2Frss%2Frd%2Farticles%2FCBMihwFodHRwczovL3d3dy51c2F0b2RheS5jb20vc3RvcnkvdHJhdmVsL2FpcmxpbmUtbmV3cy8yMDIxLzA5LzMwL2JpbGwtcmVxdWlyZS12YWNjaW5hdGlvbi1yZWNvdmVyeS10ZXN0aW5nLWRvbWVzdGljLWFpci10cmF2ZWwvNTkzNDA0MDAwMS_SASdodHRwczovL2FtcC51c2F0b2RheS5jb20vYW1wLzU5MzQwNDAwMDE%3Foc%3D5","title":"Domestic flyers may need to show proof of vaccination if Senate bill passes","date":"October 01, 2021","dateISO":"2021-10-01T06:28:30.657Z","datetime":"2021-10-01 06:28","tags":["USA TODAY"],"image":null,"imageAlt":null,"__typename":"SocialMediaPost","provider":"Google News","thirdPartyId":null,"url":"https://news.google.com/__i/rss/rd/articles/CBMihwFodHRwczovL3d3dy51c2F0b2RheS5jb20vc3RvcnkvdHJhdmVsL2FpcmxpbmUtbmV3cy8yMDIxLzA5LzMwL2JpbGwtcmVxdWlyZS12YWNjaW5hdGlvbi1yZWNvdmVyeS10ZXN0aW5nLWRvbWVzdGljLWFpci10cmF2ZWwvNTkzNDA0MDAwMS_SASdodHRwczovL2FtcC51c2F0b2RheS5jb20vYW1wLzU5MzQwNDAwMDE?oc=5","originalUrl":"https://news.google.com/__i/rss/rd/articles/CBMihwFodHRwczovL3d3dy51c2F0b2RheS5jb20vc3RvcnkvdHJhdmVsL2FpcmxpbmUtbmV3cy8yMDIxLzA5LzMwL2JpbGwtcmVxdWlyZS12YWNjaW5hdGlvbi1yZWNvdmVyeS10ZXN0aW5nLWRvbWVzdGljLWFpci10cmF2ZWwvNTkzNDA0MDAwMS_SASdodHRwczovL2FtcC51c2F0b2RheS5jb20vYW1wLzU5MzQwNDAwMDE?oc=5","imageRemote":"https://www.gannett-cdn.com/presto/2021/09/21/USAT/1dab944e-9ed3-4993-8fbd-59fff5f9025f-GettyImages-1341532540.jpeg?crop=2999,1687,x1,y3&width=2999&height=1687&format=pjpg&auto=webp","video":null,"channel":"USA TODAY","channelUrl":"","author":null,"authorUrl":null,"authorImageRemote":null,"authorImage":null,"authorSlug":null,"score":null,"views":null,"sharedCount":null,"likeCount":null,"sharedContent":null,"parent":{"localize":[{"title":"上院の法案が可決された場合、国内旅行者はワクチン接種の証明書を提示する必要があります。","description":null,"locale":"ja"},{"title":"如果参议院法案通过，国内飞行者可能需要出示疫苗接种证明","description":null,"locale":"zh"},{"title":"如果參議院法案通過，國內飛行者可能需要出示疫苗接種證明","description":null,"locale":"zh-Hant"}]}},{"id":"RedirectPost-884a48017f5c421114995f4ae29666d9","excerpt":"","slug":"/redirect/?url=https%3A%2F%2Fnews.google.com%2F__i%2Frss%2Frd%2Farticles%2FCBMiSWh0dHBzOi8vd3d3Lm55dGltZXMuY29tLzIwMjEvMDkvMzAvd29ybGQvYWZyaWNhL2FmcmljYS1jb3ZpZC12YWNjaW5lLmh0bWzSAU1odHRwczovL3d3dy5ueXRpbWVzLmNvbS8yMDIxLzA5LzMwL3dvcmxkL2FmcmljYS9hZnJpY2EtY292aWQtdmFjY2luZS5hbXAuaHRtbA%3Foc%3D5","title":"Most African Nations Fall Short of W.H.O. Target for Covid Vaccination","date":"October 01, 2021","dateISO":"2021-10-01T05:46:19.585Z","datetime":"2021-10-01 05:46","tags":["The New York Times"],"image":null,"imageAlt":null,"__typename":"SocialMediaPost","provider":"Google News","thirdPartyId":null,"url":"https://news.google.com/__i/rss/rd/articles/CBMiSWh0dHBzOi8vd3d3Lm55dGltZXMuY29tLzIwMjEvMDkvMzAvd29ybGQvYWZyaWNhL2FmcmljYS1jb3ZpZC12YWNjaW5lLmh0bWzSAU1odHRwczovL3d3dy5ueXRpbWVzLmNvbS8yMDIxLzA5LzMwL3dvcmxkL2FmcmljYS9hZnJpY2EtY292aWQtdmFjY2luZS5hbXAuaHRtbA?oc=5","originalUrl":"https://news.google.com/__i/rss/rd/articles/CBMiSWh0dHBzOi8vd3d3Lm55dGltZXMuY29tLzIwMjEvMDkvMzAvd29ybGQvYWZyaWNhL2FmcmljYS1jb3ZpZC12YWNjaW5lLmh0bWzSAU1odHRwczovL3d3dy5ueXRpbWVzLmNvbS8yMDIxLzA5LzMwL3dvcmxkL2FmcmljYS9hZnJpY2EtY292aWQtdmFjY2luZS5hbXAuaHRtbA?oc=5","imageRemote":"https://static01.nyt.com/images/2021/09/30/world/30virus-briefing-africapressers/30virus-briefing-africapressers-facebookJumbo.jpg","video":null,"channel":"The New York Times","channelUrl":"","author":null,"authorUrl":null,"authorImageRemote":null,"authorImage":null,"authorSlug":null,"score":null,"views":null,"sharedCount":null,"likeCount":null,"sharedContent":null,"parent":{"localize":[{"title":"アフリカのほとんどの国でコビットワクチン接種のWHO目標に届かず","description":null,"locale":"ja"},{"title":"大多数非洲国家没有达到世界卫生组织的科威德疫苗接种目标","description":null,"locale":"zh"},{"title":"大多數非洲國家沒有達到世界衛生組織的科威德疫苗接種目標","description":null,"locale":"zh-Hant"}]}},{"id":"RedirectPost-023cc1b08d2bfe4f4c5f81e21ab77549","excerpt":"","slug":"/redirect/?url=https%3A%2F%2Fnews.google.com%2F__i%2Frss%2Frd%2Farticles%2FCBMiWmh0dHBzOi8vd3d3LmNubi5jb20vMjAyMS8wOS8zMC9hbWVyaWNhcy9jYW5hZGEtaW5kaWdlbm91cy1jaGlsZHJlbi1jb21wZW5zYXRpb24vaW5kZXguaHRtbNIBXmh0dHBzOi8vYW1wLmNubi5jb20vY25uLzIwMjEvMDkvMzAvYW1lcmljYXMvY2FuYWRhLWluZGlnZW5vdXMtY2hpbGRyZW4tY29tcGVuc2F0aW9uL2luZGV4Lmh0bWw%3Foc%3D5","title":"Canada set to pay billions to Indigenous children removed from their families, court rules","date":"October 01, 2021","dateISO":"2021-10-01T05:33:54.812Z","datetime":"2021-10-01 05:33","tags":["CNN"],"image":null,"imageAlt":null,"__typename":"SocialMediaPost","provider":"Google News","thirdPartyId":null,"url":"https://news.google.com/__i/rss/rd/articles/CBMiWmh0dHBzOi8vd3d3LmNubi5jb20vMjAyMS8wOS8zMC9hbWVyaWNhcy9jYW5hZGEtaW5kaWdlbm91cy1jaGlsZHJlbi1jb21wZW5zYXRpb24vaW5kZXguaHRtbNIBXmh0dHBzOi8vYW1wLmNubi5jb20vY25uLzIwMjEvMDkvMzAvYW1lcmljYXMvY2FuYWRhLWluZGlnZW5vdXMtY2hpbGRyZW4tY29tcGVuc2F0aW9uL2luZGV4Lmh0bWw?oc=5","originalUrl":"https://news.google.com/__i/rss/rd/articles/CBMiWmh0dHBzOi8vd3d3LmNubi5jb20vMjAyMS8wOS8zMC9hbWVyaWNhcy9jYW5hZGEtaW5kaWdlbm91cy1jaGlsZHJlbi1jb21wZW5zYXRpb24vaW5kZXguaHRtbNIBXmh0dHBzOi8vYW1wLmNubi5jb20vY25uLzIwMjEvMDkvMzAvYW1lcmljYXMvY2FuYWRhLWluZGlnZW5vdXMtY2hpbGRyZW4tY29tcGVuc2F0aW9uL2luZGV4Lmh0bWw?oc=5","imageRemote":"https://cdn.cnn.com/cnnnext/dam/assets/210930132221-canada-first-nations-truth-and-reconciliation-093021-super-tease.jpg","video":null,"channel":"CNN","channelUrl":"","author":null,"authorUrl":null,"authorImageRemote":null,"authorImage":null,"authorSlug":null,"score":null,"views":null,"sharedCount":null,"likeCount":null,"sharedContent":null,"parent":{"localize":[{"title":"カナダは家族から引き離された先住民の子供たちに数十億ドルを支払う必要があると裁判所が判断","description":null,"locale":"ja"},{"title":"法院裁定，加拿大将向被带离家庭的土著儿童支付数十亿的费用","description":null,"locale":"zh"},{"title":"法院裁定，加拿大將向被帶離家庭的土著兒童支付數十億的費用","description":null,"locale":"zh-Hant"}]}},{"id":"RedirectPost-cba5ceb902545f65c8b81c9d1fc16d53","excerpt":"","slug":"/redirect/?url=https%3A%2F%2Fnews.google.com%2F__i%2Frss%2Frd%2Farticles%2FCBMiJGh0dHBzOi8vd3d3LmJiYy5jb20vbmV3cy91ay01ODc1NzM3NdIBKGh0dHBzOi8vd3d3LmJiYy5jb20vbmV3cy91ay01ODc1NzM3NS5hbXA%3Foc%3D5","title":"Sarah Everard: Challenge plain-clothes officers, Met Police says","date":"October 01, 2021","dateISO":"2021-10-01T05:21:26.998Z","datetime":"2021-10-01 05:21","tags":["BBC News"],"image":null,"imageAlt":null,"__typename":"SocialMediaPost","provider":"Google News","thirdPartyId":null,"url":"https://news.google.com/__i/rss/rd/articles/CBMiJGh0dHBzOi8vd3d3LmJiYy5jb20vbmV3cy91ay01ODc1NzM3NdIBKGh0dHBzOi8vd3d3LmJiYy5jb20vbmV3cy91ay01ODc1NzM3NS5hbXA?oc=5","originalUrl":"https://news.google.com/__i/rss/rd/articles/CBMiJGh0dHBzOi8vd3d3LmJiYy5jb20vbmV3cy91ay01ODc1NzM3NdIBKGh0dHBzOi8vd3d3LmJiYy5jb20vbmV3cy91ay01ODc1NzM3NS5hbXA?oc=5","imageRemote":"https://ichef.bbci.co.uk/news/1024/branded_news/A70F/production/_120776724_ceb13d03-b747-470e-80d7-e15d4e3cdff2.jpg","video":null,"channel":"BBC News","channelUrl":"","author":null,"authorUrl":null,"authorImageRemote":null,"authorImage":null,"authorSlug":null,"score":null,"views":null,"sharedCount":null,"likeCount":null,"sharedContent":null,"parent":{"localize":[{"title":"Sarah Everard 私服警官に挑戦、英国警察が発表","description":null,"locale":"ja"},{"title":"萨拉-埃弗拉德 伦敦警察局表示，挑战便衣警察","description":null,"locale":"zh"},{"title":"薩拉-埃弗拉德 倫敦警察局表示，挑戰便衣警察","description":null,"locale":"zh-Hant"}]}},{"id":"RedirectPost-2ff7fa683813b909f4c646db7d19a5ea","excerpt":"","slug":"/redirect/?url=https%3A%2F%2Fnews.google.com%2F__i%2Frss%2Frd%2Farticles%2FCBMidWh0dHBzOi8vdGhlaGlsbC5jb20vcG9saWN5L2ludGVybmF0aW9uYWwvNTc0ODM0LWV1LWF1c3RyYWxpYS10cmFkZS10YWxrcy1oYWx0ZWQtYWZ0ZXItc3VibWFyaW5lLWRlYWwtY29udHJvdmVyc3ktd2l0aNIBeWh0dHBzOi8vdGhlaGlsbC5jb20vcG9saWN5L2ludGVybmF0aW9uYWwvNTc0ODM0LWV1LWF1c3RyYWxpYS10cmFkZS10YWxrcy1oYWx0ZWQtYWZ0ZXItc3VibWFyaW5lLWRlYWwtY29udHJvdmVyc3ktd2l0aD9hbXA%3Foc%3D5","title":"EU, Australia trade talks halted after submarine deal controversy with France | TheHill","date":"October 01, 2021","dateISO":"2021-10-01T05:21:26.997Z","datetime":"2021-10-01 05:21","tags":["The Hill"],"image":null,"imageAlt":null,"__typename":"SocialMediaPost","provider":"Google News","thirdPartyId":null,"url":"https://news.google.com/__i/rss/rd/articles/CBMidWh0dHBzOi8vdGhlaGlsbC5jb20vcG9saWN5L2ludGVybmF0aW9uYWwvNTc0ODM0LWV1LWF1c3RyYWxpYS10cmFkZS10YWxrcy1oYWx0ZWQtYWZ0ZXItc3VibWFyaW5lLWRlYWwtY29udHJvdmVyc3ktd2l0aNIBeWh0dHBzOi8vdGhlaGlsbC5jb20vcG9saWN5L2ludGVybmF0aW9uYWwvNTc0ODM0LWV1LWF1c3RyYWxpYS10cmFkZS10YWxrcy1oYWx0ZWQtYWZ0ZXItc3VibWFyaW5lLWRlYWwtY29udHJvdmVyc3ktd2l0aD9hbXA?oc=5","originalUrl":"https://news.google.com/__i/rss/rd/articles/CBMidWh0dHBzOi8vdGhlaGlsbC5jb20vcG9saWN5L2ludGVybmF0aW9uYWwvNTc0ODM0LWV1LWF1c3RyYWxpYS10cmFkZS10YWxrcy1oYWx0ZWQtYWZ0ZXItc3VibWFyaW5lLWRlYWwtY29udHJvdmVyc3ktd2l0aNIBeWh0dHBzOi8vdGhlaGlsbC5jb20vcG9saWN5L2ludGVybmF0aW9uYWwvNTc0ODM0LWV1LWF1c3RyYWxpYS10cmFkZS10YWxrcy1oYWx0ZWQtYWZ0ZXItc3VibWFyaW5lLWRlYWwtY29udHJvdmVyc3ktd2l0aD9hbXA?oc=5","imageRemote":"https://thehill.com/sites/default/files/macron_052721getty.jpg","video":null,"channel":"The Hill","channelUrl":"","author":null,"authorUrl":null,"authorImageRemote":null,"authorImage":null,"authorSlug":null,"score":null,"views":null,"sharedCount":null,"likeCount":null,"sharedContent":null,"parent":{"localize":[{"title":"フランスとの潜水艦取引問題でEUとオーストラリアの貿易協議が停止｜TheHill","description":null,"locale":"ja"},{"title":"欧盟和澳大利亚在与法国的潜艇交易争议后停止贸易谈判 | TheHill","description":null,"locale":"zh"},{"title":"歐盟和澳大利亞在與法國的潛艇交易爭議後停止貿易談判 | TheHill","description":null,"locale":"zh-Hant"}]}},{"id":"RedirectPost-d6f85e87b7ce8e960af64d342b3d3a39","excerpt":"","slug":"/redirect/?url=https%3A%2F%2Fnews.google.com%2F__i%2Frss%2Frd%2Farticles%2FCBMia2h0dHBzOi8vd3d3Lmpwb3N0LmNvbS9pc3JhZWwtbmV3cy9wYWxlc3Rpbmlhbi12aWxsYWdlLWF0dGFja2VkLWJ5LXNldHRsZXJzLXZpc2l0ZWQtYnktYXJteS1jb21tYW5kZXItNjgwNzcw0gFtaHR0cHM6Ly9tLmpwb3N0LmNvbS9pc3JhZWwtbmV3cy9wYWxlc3Rpbmlhbi12aWxsYWdlLWF0dGFja2VkLWJ5LXNldHRsZXJzLXZpc2l0ZWQtYnktYXJteS1jb21tYW5kZXItNjgwNzcwL2FtcA%3Foc%3D5","title":"Palestinian village attacked by settlers visited by army commander","date":"October 01, 2021","dateISO":"2021-10-01T02:58:29.330Z","datetime":"2021-10-01 02:58","tags":["The Jerusalem Post"],"image":null,"imageAlt":null,"__typename":"SocialMediaPost","provider":"Google News","thirdPartyId":null,"url":"https://news.google.com/__i/rss/rd/articles/CBMia2h0dHBzOi8vd3d3Lmpwb3N0LmNvbS9pc3JhZWwtbmV3cy9wYWxlc3Rpbmlhbi12aWxsYWdlLWF0dGFja2VkLWJ5LXNldHRsZXJzLXZpc2l0ZWQtYnktYXJteS1jb21tYW5kZXItNjgwNzcw0gFtaHR0cHM6Ly9tLmpwb3N0LmNvbS9pc3JhZWwtbmV3cy9wYWxlc3Rpbmlhbi12aWxsYWdlLWF0dGFja2VkLWJ5LXNldHRsZXJzLXZpc2l0ZWQtYnktYXJteS1jb21tYW5kZXItNjgwNzcwL2FtcA?oc=5","originalUrl":"https://news.google.com/__i/rss/rd/articles/CBMia2h0dHBzOi8vd3d3Lmpwb3N0LmNvbS9pc3JhZWwtbmV3cy9wYWxlc3Rpbmlhbi12aWxsYWdlLWF0dGFja2VkLWJ5LXNldHRsZXJzLXZpc2l0ZWQtYnktYXJteS1jb21tYW5kZXItNjgwNzcw0gFtaHR0cHM6Ly9tLmpwb3N0LmNvbS9pc3JhZWwtbmV3cy9wYWxlc3Rpbmlhbi12aWxsYWdlLWF0dGFja2VkLWJ5LXNldHRsZXJzLXZpc2l0ZWQtYnktYXJteS1jb21tYW5kZXItNjgwNzcwL2FtcA?oc=5","imageRemote":"https://images.jpost.com/image/upload/f_auto,fl_lossy/t_JD_ArticleMainImageFaceDetect/484224","video":null,"channel":"The Jerusalem Post","channelUrl":"","author":null,"authorUrl":null,"authorImageRemote":null,"authorImage":null,"authorSlug":null,"score":null,"views":null,"sharedCount":null,"likeCount":null,"sharedContent":null,"parent":{"localize":[{"title":"入植者に襲われたパレスチナの村に軍司令官が訪問","description":null,"locale":"ja"},{"title":"定居者袭击的巴勒斯坦村庄被军队指挥官访问","description":null,"locale":"zh"},{"title":"定居者襲擊的巴勒斯坦村莊被軍隊指揮官訪問","description":null,"locale":"zh-Hant"}]}},{"id":"RedirectPost-4c1ba5d2985bd2483357b0a896960366","excerpt":"","slug":"/redirect/?url=https%3A%2F%2Fnews.google.com%2F__i%2Frss%2Frd%2Farticles%2FCBMiK2h0dHBzOi8vd3d3LnlvdXR1YmUuY29tL3dhdGNoP3Y9X3Q5WWxLcGxEcnfSAQA%3Foc%3D5","title":"La Palma volcano eruption: Fear of explosions and toxic gases | DW News","date":"October 01, 2021","dateISO":"2021-10-01T01:12:40.150Z","datetime":"2021-10-01 01:12","tags":["DW News"],"image":null,"imageAlt":null,"__typename":"SocialMediaPost","provider":"Google News","thirdPartyId":null,"url":"https://news.google.com/__i/rss/rd/articles/CBMiK2h0dHBzOi8vd3d3LnlvdXR1YmUuY29tL3dhdGNoP3Y9X3Q5WWxLcGxEcnfSAQA?oc=5","originalUrl":"https://news.google.com/__i/rss/rd/articles/CBMiK2h0dHBzOi8vd3d3LnlvdXR1YmUuY29tL3dhdGNoP3Y9X3Q5WWxLcGxEcnfSAQA?oc=5","imageRemote":"https://i.ytimg.com/vi/_t9YlKplDrw/maxresdefault.jpg","video":null,"channel":"DW News","channelUrl":"","author":null,"authorUrl":null,"authorImageRemote":null,"authorImage":null,"authorSlug":null,"score":null,"views":null,"sharedCount":null,"likeCount":null,"sharedContent":null,"parent":{"localize":[{"title":"ラ・パルマ火山の噴火。爆発や有毒ガスの恐れ｜DWニュース","description":null,"locale":"ja"},{"title":"拉帕尔马火山喷发。担心爆炸和有毒气体 | DW新闻","description":null,"locale":"zh"},{"title":"拉帕爾馬火山噴發。擔心爆炸和有毒氣體 | DW新聞","description":null,"locale":"zh-Hant"}]}},{"id":"RedirectPost-ece4002b7a947a86527d078ebf5074ce","excerpt":"","slug":"/redirect/?url=https%3A%2F%2Fnews.google.com%2F__i%2Frss%2Frd%2Farticles%2FCBMiTGh0dHBzOi8vd3d3Lndhc2hpbmd0b25wb3N0LmNvbS93b3JsZC8yMDIxLzA5LzMwL2VjdWFkb3ItcHJpc29uLXJpb3QtY2FydGVscy_SAQA%3Foc%3D5","title":"Ecuador's prisons are becoming battlegrounds for gangs and Mexican drug cartels","date":"October 01, 2021","dateISO":"2021-10-01T01:12:40.150Z","datetime":"2021-10-01 01:12","tags":["The Washington Post"],"image":null,"imageAlt":null,"__typename":"SocialMediaPost","provider":"Google News","thirdPartyId":null,"url":"https://news.google.com/__i/rss/rd/articles/CBMiTGh0dHBzOi8vd3d3Lndhc2hpbmd0b25wb3N0LmNvbS93b3JsZC8yMDIxLzA5LzMwL2VjdWFkb3ItcHJpc29uLXJpb3QtY2FydGVscy_SAQA?oc=5","originalUrl":"https://news.google.com/__i/rss/rd/articles/CBMiTGh0dHBzOi8vd3d3Lndhc2hpbmd0b25wb3N0LmNvbS93b3JsZC8yMDIxLzA5LzMwL2VjdWFkb3ItcHJpc29uLXJpb3QtY2FydGVscy_SAQA?oc=5","imageRemote":"https://www.washingtonpost.com/wp-apps/imrs.php?src=https://arc-anglerfish-washpost-prod-washpost.s3.amazonaws.com/public/T7BRFXRCFAI6ZKGZBAT2FJFZCU.jpg&w=1440","video":null,"channel":"The Washington Post","channelUrl":"","author":null,"authorUrl":null,"authorImageRemote":null,"authorImage":null,"authorSlug":null,"score":null,"views":null,"sharedCount":null,"likeCount":null,"sharedContent":null,"parent":{"localize":[{"title":"ギャングとメキシコ麻薬カルテルの戦場と化しているエクアドルの刑務所","description":null,"locale":"ja"},{"title":"厄瓜多尔的监狱正在成为黑帮和墨西哥贩毒集团的战场","description":null,"locale":"zh"},{"title":"厄瓜多爾的監獄正在成爲黑幫和墨西哥販毒集團的戰場","description":null,"locale":"zh-Hant"}]}}]}},"pageContext":{"basePath":"/","pageType":"home","tagsFilter":{"date":{"gt":"2000-12-25T10:54:58.000Z"}},"filter":{"date":{"gt":"2000-12-25T10:54:58.000Z"}},"limit":50,"skip":2800,"totalPages":57,"total":2808,"currentPage":57,"maxWidth":1024,"maxHeight":512,"siteMetadata":null,"locale":"en","hrefLang":"en-US","originalPath":"/page/57","dateFormat":"MM/DD/YYYY"}},
    "staticQueryHashes": ["1239077767","2744905544","3025052997","3280999885"]}